{
  "collection": "@nestjs/schematics",
  "sourceRoot": "src",
  "compilerOptions": {
    "plugins": [
      {
        "name": "@nestjs/swagger",
        "options": {
          "introspectComments": true,
          "classValidatorShim": true,
          "dtoFileNameSuffix": [".dto.ts", ".entity.ts", ".model.ts"]
        }
      }
    ]
  }
}
